test_run_dir/Top_File_Test/TopFile.vcd
$version Generated by VerilatedVcd $end
$date Thu Mar 31 20:01:14 2022
 $end
$timescale   1ns $end

 $scope module TOP $end
  $var wire  1 I+ clock $end
  $var wire 32 Y+ io_RegOut [31:0] $end
  $var wire  1 Q+ reset $end
  $scope module TopFile $end
   $var wire 32 G" ImmediateGeneration_io_i_imm [31:0] $end
   $var wire 32 }! ImmediateGeneration_io_instr [31:0] $end
   $var wire 32 e% ImmediateGeneration_io_pc [31:0] $end
   $var wire 32 '" ImmediateGeneration_io_s_imm [31:0] $end
   $var wire 32 /" ImmediateGeneration_io_sb_imm [31:0] $end
   $var wire 32 ?" ImmediateGeneration_io_u_imm [31:0] $end
   $var wire 32 7" ImmediateGeneration_io_uj_imm [31:0] $end
   $var wire  1 I+ Memory_clock $end
   $var wire 10 m% Memory_io_addr [9:0] $end
   $var wire 32 }! Memory_io_inst [31:0] $end
   $var wire  3 K aluControl_io_Aluop [2:0] $end
   $var wire  5 # aluControl_io_control [4:0] $end
   $var wire  3 [ aluControl_io_func3 [2:0] $end
   $var wire  1 S aluControl_io_func7 $end
   $var wire  5 # alu_io_AluControl [4:0] $end
   $var wire  1 ; alu_io_Branch $end
   $var wire 32 + alu_io_in1 [31:0] $end
   $var wire 32 3 alu_io_in2 [31:0] $end
   $var wire 32 C alu_io_out [31:0] $end
   $var wire  1 I+ clock $end
   $var wire  3 K control_io_AluOp [2:0] $end
   $var wire  1 { control_io_Branch $end
   $var wire  2 E! control_io_ExtendSel [1:0] $end
   $var wire  1 ]! control_io_FRegRead $end
   $var wire  1 U! control_io_FRegWrite $end
   $var wire  1 %! control_io_MemRead $end
   $var wire  1 %! control_io_MemToReg $end
   $var wire  1 s control_io_MemWrite $end
   $var wire  2 M! control_io_NextPcSel [1:0] $end
   $var wire  2 5! control_io_Operand_aSel [1:0] $end
   $var wire  1 =! control_io_Operand_bSel $end
   $var wire  1 -! control_io_RegWrite $end
   $var wire  5 k control_io_func5 [4:0] $end
   $var wire  7 c control_io_opCode [6:0] $end
   $var wire  1 I+ dataMemory_clock $end
   $var wire 32 u! dataMemory_io_addr [31:0] $end
   $var wire 32 e! dataMemory_io_data_in [31:0] $end
   $var wire 32 m! dataMemory_io_data_out [31:0] $end
   $var wire  1 %! dataMemory_io_rd_en $end
   $var wire  1 s dataMemory_io_wr_en $end
   $var wire  1 I+ freg_clock $end
   $var wire  5 g" freg_io_raddr1 [4:0] $end
   $var wire  5 o" freg_io_raddr2 [4:0] $end
   $var wire 32 )# freg_io_rdata1 [31:0] $end
   $var wire 32 1# freg_io_rdata2 [31:0] $end
   $var wire  1 U! freg_io_regEn $end
   $var wire  5 w" freg_io_waddr [4:0] $end
   $var wire 32 9# freg_io_wdata [31:0] $end
   $var wire 32 Y+ io_RegOut [31:0] $end
   $var wire 32 G" jalr_io_Type [31:0] $end
   $var wire 32 W" jalr_io_out [31:0] $end
   $var wire 32 O" jalr_io_rs1 [31:0] $end
   $var wire  1 I+ pc_clock $end
   $var wire 32 _" pc_io_in [31:0] $end
   $var wire 32 e% pc_io_pc [31:0] $end
   $var wire 32 u% pc_io_pcPlus4 [31:0] $end
   $var wire  1 Q+ pc_reset $end
   $var wire  1 I+ registerFile_clock $end
   $var wire  5 g" registerFile_io_raddr1 [4:0] $end
   $var wire  5 o" registerFile_io_raddr2 [4:0] $end
   $var wire 32 O" registerFile_io_rdata1 [31:0] $end
   $var wire 32 e! registerFile_io_rdata2 [31:0] $end
   $var wire  1 -! registerFile_io_regEn $end
   $var wire  5 w" registerFile_io_waddr [4:0] $end
   $var wire 32 !# registerFile_io_wdata [31:0] $end
   $var wire  1 Q+ reset $end
   $scope module ImmediateGeneration $end
    $var wire 32 G" io_i_imm [31:0] $end
    $var wire 20 U% io_i_imm_hi [19:0] $end
    $var wire 12 ]% io_i_imm_lo [11:0] $end
    $var wire 32 }! io_instr [31:0] $end
    $var wire 32 e% io_pc [31:0] $end
    $var wire 32 '" io_s_imm [31:0] $end
    $var wire 20 K$ io_s_imm_hi [19:0] $end
    $var wire 32 /" io_sb_imm [31:0] $end
    $var wire 19 {$ io_sb_imm_hi [18:0] $end
    $var wire 32 ?" io_u_imm [31:0] $end
    $var wire 12 E% io_u_imm_hi [11:0] $end
    $var wire 20 M% io_u_imm_lo [19:0] $end
    $var wire 32 7" io_uj_imm [31:0] $end
    $var wire 12 E% io_uj_imm_hi [11:0] $end
    $var wire 12 C$ s_imm13 [11:0] $end
    $var wire  7 ;$ s_imm13_hi [6:0] $end
    $var wire  5 w" s_imm13_lo [4:0] $end
    $var wire 13 s$ sb_imm13 [12:0] $end
    $var wire  1 S$ sb_imm13_hi_hi_hi $end
    $var wire  1 [$ sb_imm13_hi_hi_lo $end
    $var wire  6 c$ sb_imm13_hi_lo [5:0] $end
    $var wire  4 k$ sb_imm13_lo_hi [3:0] $end
    $var wire 21 =% uj_imm21 [20:0] $end
    $var wire  8 %% uj_imm21_hi_hi_lo [7:0] $end
    $var wire  1 -% uj_imm21_hi_lo $end
    $var wire 10 5% uj_imm21_lo_hi [9:0] $end
   $upscope $end
   $scope module Memory $end
    $var wire  1 I+ clock $end
    $var wire 10 m% imem_io_inst_MPORT_addr [9:0] $end
    $var wire 32 }! imem_io_inst_MPORT_data [31:0] $end
    $var wire 10 m% io_addr [9:0] $end
    $var wire 32 }! io_inst [31:0] $end
    $scope module BindsTo_0_InstructionMemory_Inst $end
     $var wire  1 I+ clock $end
     $var wire 10 m% io_addr [9:0] $end
     $var wire 32 }! io_inst [31:0] $end
    $upscope $end
   $upscope $end
   $scope module alu $end
    $var wire  5 # io_AluControl [4:0] $end
    $var wire  1 ; io_Branch $end
    $var wire 32 + io_in1 [31:0] $end
    $var wire 32 3 io_in2 [31:0] $end
    $var wire 32 C io_out [31:0] $end
   $upscope $end
   $scope module aluControl $end
    $var wire  3 K io_Aluop [2:0] $end
    $var wire  5 # io_control [4:0] $end
    $var wire  3 [ io_func3 [2:0] $end
    $var wire  1 S io_func7 $end
   $upscope $end
   $scope module control $end
    $var wire  3 K controlDec_io_AluOp [2:0] $end
    $var wire  1 { controlDec_io_Branch $end
    $var wire  2 E! controlDec_io_ExtendSel [1:0] $end
    $var wire  1 ]! controlDec_io_FRegRead $end
    $var wire  1 U! controlDec_io_FRegWrite $end
    $var wire  1 +$ controlDec_io_Fadd $end
    $var wire  1 #$ controlDec_io_Fmv $end
    $var wire  1 a# controlDec_io_IType $end
    $var wire  1 q# controlDec_io_Jal $end
    $var wire  1 i# controlDec_io_Jalr $end
    $var wire  1 I# controlDec_io_Load $end
    $var wire  1 y# controlDec_io_Lui $end
    $var wire  1 %! controlDec_io_MemRead $end
    $var wire  1 %! controlDec_io_MemToReg $end
    $var wire  1 s controlDec_io_MemWrite $end
    $var wire  2 M! controlDec_io_NextPcSel [1:0] $end
    $var wire  2 5! controlDec_io_Operand_aSel [1:0] $end
    $var wire  1 =! controlDec_io_Operand_bSel $end
    $var wire  1 A# controlDec_io_RType $end
    $var wire  1 -! controlDec_io_RegWrite $end
    $var wire  1 Y# controlDec_io_SBType $end
    $var wire  1 Q# controlDec_io_Store $end
    $var wire  3 K io_AluOp [2:0] $end
    $var wire  1 { io_Branch $end
    $var wire  2 E! io_ExtendSel [1:0] $end
    $var wire  1 ]! io_FRegRead $end
    $var wire  1 U! io_FRegWrite $end
    $var wire  1 %! io_MemRead $end
    $var wire  1 %! io_MemToReg $end
    $var wire  1 s io_MemWrite $end
    $var wire  2 M! io_NextPcSel [1:0] $end
    $var wire  2 5! io_Operand_aSel [1:0] $end
    $var wire  1 =! io_Operand_bSel $end
    $var wire  1 -! io_RegWrite $end
    $var wire  5 k io_func5 [4:0] $end
    $var wire  7 c io_opCode [6:0] $end
    $var wire  1 Y# typeDec_io_Branch $end
    $var wire  1 +$ typeDec_io_Fadd $end
    $var wire  1 #$ typeDec_io_Fmv $end
    $var wire  1 a# typeDec_io_IType $end
    $var wire  1 q# typeDec_io_Jal $end
    $var wire  1 i# typeDec_io_Jalr $end
    $var wire  1 I# typeDec_io_Load $end
    $var wire  1 y# typeDec_io_Lui $end
    $var wire  1 A# typeDec_io_RType $end
    $var wire  1 Q# typeDec_io_Store $end
    $var wire  5 k typeDec_io_func5 [4:0] $end
    $var wire  7 c typeDec_io_opCode [6:0] $end
    $scope module controlDec $end
     $var wire  3 K io_AluOp [2:0] $end
     $var wire  1 { io_Branch $end
     $var wire  2 E! io_ExtendSel [1:0] $end
     $var wire  1 ]! io_FRegRead $end
     $var wire  1 U! io_FRegWrite $end
     $var wire  1 +$ io_Fadd $end
     $var wire  1 #$ io_Fmv $end
     $var wire  1 a# io_IType $end
     $var wire  1 q# io_Jal $end
     $var wire  1 i# io_Jalr $end
     $var wire  1 I# io_Load $end
     $var wire  1 y# io_Lui $end
     $var wire  1 %! io_MemRead $end
     $var wire  1 %! io_MemToReg $end
     $var wire  1 s io_MemWrite $end
     $var wire  2 M! io_NextPcSel [1:0] $end
     $var wire  2 5! io_Operand_aSel [1:0] $end
     $var wire  1 =! io_Operand_bSel $end
     $var wire  1 A# io_RType $end
     $var wire  1 -! io_RegWrite $end
     $var wire  1 Y# io_SBType $end
     $var wire  1 Q# io_Store $end
    $upscope $end
    $scope module typeDec $end
     $var wire  1 Y# io_Branch $end
     $var wire  1 +$ io_Fadd $end
     $var wire  1 #$ io_Fmv $end
     $var wire  1 a# io_IType $end
     $var wire  1 q# io_Jal $end
     $var wire  1 i# io_Jalr $end
     $var wire  1 I# io_Load $end
     $var wire  1 y# io_Lui $end
     $var wire  1 A# io_RType $end
     $var wire  1 Q# io_Store $end
     $var wire  5 k io_func5 [4:0] $end
     $var wire  7 c io_opCode [6:0] $end
    $upscope $end
   $upscope $end
   $scope module dataMemory $end
    $var wire  1 I+ clock $end
    $var wire 32 u! io_addr [31:0] $end
    $var wire 32 e! io_data_in [31:0] $end
    $var wire 32 m! io_data_out [31:0] $end
    $var wire  1 %! io_rd_en $end
    $var wire  1 s io_wr_en $end
    $var wire 10 3$ memory_MPORT_addr [9:0] $end
    $var wire 32 e! memory_MPORT_data [31:0] $end
    $var wire  1 s memory_MPORT_en $end
    $var wire  1 a+ memory_MPORT_mask $end
    $var wire 10 3$ memory_io_data_out_MPORT_addr [9:0] $end
    $var wire 32 m! memory_io_data_out_MPORT_data [31:0] $end
   $upscope $end
   $scope module freg $end
    $var wire  1 I+ clock $end
    $var wire  5 g" io_raddr1 [4:0] $end
    $var wire  5 o" io_raddr2 [4:0] $end
    $var wire 32 )# io_rdata1 [31:0] $end
    $var wire 32 1# io_rdata2 [31:0] $end
    $var wire  1 U! io_regEn $end
    $var wire  5 w" io_waddr [4:0] $end
    $var wire 32 9# io_wdata [31:0] $end
    $var wire 32 c( regs_0 [31:0] $end
    $var wire 32 k( regs_1 [31:0] $end
    $var wire 32 U) regs_10 [31:0] $end
    $var wire 32 ]) regs_11 [31:0] $end
    $var wire 32 e) regs_12 [31:0] $end
    $var wire 32 m) regs_13 [31:0] $end
    $var wire 32 u) regs_14 [31:0] $end
    $var wire 32 }) regs_15 [31:0] $end
    $var wire 32 '* regs_16 [31:0] $end
    $var wire 32 /* regs_17 [31:0] $end
    $var wire 32 7* regs_18 [31:0] $end
    $var wire 32 ?* regs_19 [31:0] $end
    $var wire 32 s( regs_2 [31:0] $end
    $var wire 32 G* regs_20 [31:0] $end
    $var wire 32 O* regs_21 [31:0] $end
    $var wire 32 W* regs_22 [31:0] $end
    $var wire 32 _* regs_23 [31:0] $end
    $var wire 32 g* regs_24 [31:0] $end
    $var wire 32 o* regs_25 [31:0] $end
    $var wire 32 w* regs_26 [31:0] $end
    $var wire 32 !+ regs_27 [31:0] $end
    $var wire 32 )+ regs_28 [31:0] $end
    $var wire 32 1+ regs_29 [31:0] $end
    $var wire 32 {( regs_3 [31:0] $end
    $var wire 32 9+ regs_30 [31:0] $end
    $var wire 32 A+ regs_31 [31:0] $end
    $var wire 32 %) regs_4 [31:0] $end
    $var wire 32 -) regs_5 [31:0] $end
    $var wire 32 5) regs_6 [31:0] $end
    $var wire 32 =) regs_7 [31:0] $end
    $var wire 32 E) regs_8 [31:0] $end
    $var wire 32 M) regs_9 [31:0] $end
   $upscope $end
   $scope module jalr $end
    $var wire 32 G" io_Type [31:0] $end
    $var wire 32 W" io_out [31:0] $end
    $var wire 32 O" io_rs1 [31:0] $end
   $upscope $end
   $scope module pc $end
    $var wire  1 I+ clock $end
    $var wire 32 _" io_in [31:0] $end
    $var wire 32 e% io_pc [31:0] $end
    $var wire 32 u% io_pcPlus4 [31:0] $end
    $var wire 32 e% reg_ [31:0] $end
    $var wire  1 Q+ reset $end
   $upscope $end
   $scope module registerFile $end
    $var wire  1 I+ clock $end
    $var wire  5 g" io_raddr1 [4:0] $end
    $var wire  5 o" io_raddr2 [4:0] $end
    $var wire 32 O" io_rdata1 [31:0] $end
    $var wire 32 e! io_rdata2 [31:0] $end
    $var wire  1 -! io_regEn $end
    $var wire  5 w" io_waddr [4:0] $end
    $var wire 32 !# io_wdata [31:0] $end
    $var wire 32 }% regs_0 [31:0] $end
    $var wire 32 '& regs_1 [31:0] $end
    $var wire 32 o& regs_10 [31:0] $end
    $var wire 32 w& regs_11 [31:0] $end
    $var wire 32 !' regs_12 [31:0] $end
    $var wire 32 )' regs_13 [31:0] $end
    $var wire 32 1' regs_14 [31:0] $end
    $var wire 32 9' regs_15 [31:0] $end
    $var wire 32 A' regs_16 [31:0] $end
    $var wire 32 I' regs_17 [31:0] $end
    $var wire 32 Q' regs_18 [31:0] $end
    $var wire 32 Y' regs_19 [31:0] $end
    $var wire 32 /& regs_2 [31:0] $end
    $var wire 32 a' regs_20 [31:0] $end
    $var wire 32 i' regs_21 [31:0] $end
    $var wire 32 q' regs_22 [31:0] $end
    $var wire 32 y' regs_23 [31:0] $end
    $var wire 32 #( regs_24 [31:0] $end
    $var wire 32 +( regs_25 [31:0] $end
    $var wire 32 3( regs_26 [31:0] $end
    $var wire 32 ;( regs_27 [31:0] $end
    $var wire 32 C( regs_28 [31:0] $end
    $var wire 32 K( regs_29 [31:0] $end
    $var wire 32 7& regs_3 [31:0] $end
    $var wire 32 S( regs_30 [31:0] $end
    $var wire 32 [( regs_31 [31:0] $end
    $var wire 32 ?& regs_4 [31:0] $end
    $var wire 32 G& regs_5 [31:0] $end
    $var wire 32 O& regs_6 [31:0] $end
    $var wire 32 W& regs_7 [31:0] $end
    $var wire 32 _& regs_8 [31:0] $end
    $var wire 32 g& regs_9 [31:0] $end
   $upscope $end
  $upscope $end
 $upscope $end
$enddefinitions $end


#0
b00000 #
b00000000000000000000000000000000 +
b01000000001000000000000000000000 3
0;
b01000000001000000000000000000000 C
b110 K
1S
b000 [
b0110111 c
b01000 k
0s
0{
0%!
1-!
b11 5!
1=!
b01 E!
b00 M!
0U!
0]!
b00000000000000000000000000000000 e!
b00000000000000000000000000000000 m!
b00000000000000000000000000000000 u!
b01000000001000000000001010110111 }!
b00000000000000000000010000000101 '"
b00000000000000000000110000000100 /"
b00000000000000000000010000000010 7"
b01000000001000000000000000000000 ?"
b00000000000000000000010000000010 G"
b00000000000000000000000000000000 O"
b00000000000000000000010000000010 W"
b00000000000000000000000000000100 _"
b00000 g"
b00010 o"
b00101 w"
b01000000001000000000000000000000 !#
b00000000000000000000000000000000 )#
b00000000000000000000000000000000 1#
b00000000000000000000000000000000 9#
0A#
0I#
0Q#
0Y#
0a#
0i#
0q#
1y#
0#$
0+$
b0000000000 3$
b0100000 ;$
b010000000101 C$
b00000000000000000000 K$
0S$
1[$
b100000 c$
b0010 k$
b0110000000100 s$
b0000000000000000000 {$
b00000000 %%
0-%
b1000000001 5%
b000000000010000000010 =%
b000000000000 E%
b01000000001000000000 M%
b00000000000000000000 U%
b010000000010 ]%
b00000000000000000000000000000000 e%
b0000000000 m%
b00000000000000000000000000000100 u%
b00000000000000000000000000000000 }%
b00000000000000000000000000000000 '&
b00000000000000000000000000000000 /&
b00000000000000000000000000000000 7&
b00000000000000000000000000000000 ?&
b00000000000000000000000000000000 G&
b00000000000000000000000000000000 O&
b00000000000000000000000000000000 W&
b00000000000000000000000000000000 _&
b00000000000000000000000000000000 g&
b00000000000000000000000000000000 o&
b00000000000000000000000000000000 w&
b00000000000000000000000000000000 !'
b00000000000000000000000000000000 )'
b00000000000000000000000000000000 1'
b00000000000000000000000000000000 9'
b00000000000000000000000000000000 A'
b00000000000000000000000000000000 I'
b00000000000000000000000000000000 Q'
b00000000000000000000000000000000 Y'
b00000000000000000000000000000000 a'
b00000000000000000000000000000000 i'
b00000000000000000000000000000000 q'
b00000000000000000000000000000000 y'
b00000000000000000000000000000000 #(
b00000000000000000000000000000000 +(
b00000000000000000000000000000000 3(
b00000000000000000000000000000000 ;(
b00000000000000000000000000000000 C(
b00000000000000000000000000000000 K(
b00000000000000000000000000000000 S(
b00000000000000000000000000000000 [(
b00000000000000000000000000000000 c(
b00000000000000000000000000000000 k(
b00000000000000000000000000000000 s(
b00000000000000000000000000000000 {(
b00000000000000000000000000000000 %)
b00000000000000000000000000000000 -)
b00000000000000000000000000000000 5)
b00000000000000000000000000000000 =)
b00000000000000000000000000000000 E)
b00000000000000000000000000000000 M)
b00000000000000000000000000000000 U)
b00000000000000000000000000000000 ])
b00000000000000000000000000000000 e)
b00000000000000000000000000000000 m)
b00000000000000000000000000000000 u)
b00000000000000000000000000000000 })
b00000000000000000000000000000000 '*
b00000000000000000000000000000000 /*
b00000000000000000000000000000000 7*
b00000000000000000000000000000000 ?*
b00000000000000000000000000000000 G*
b00000000000000000000000000000000 O*
b00000000000000000000000000000000 W*
b00000000000000000000000000000000 _*
b00000000000000000000000000000000 g*
b00000000000000000000000000000000 o*
b00000000000000000000000000000000 w*
b00000000000000000000000000000000 !+
b00000000000000000000000000000000 )+
b00000000000000000000000000000000 1+
b00000000000000000000000000000000 9+
b00000000000000000000000000000000 A+
0I+
1Q+
b01000000001000000000000000000000 Y+
1a+
#1
b01000000001000000000000000000000 G&
1I+
#2
0I+
0Q+
#3
b01000000001000000000000000000000 +
b00000000000000000000000000000000 3
b001 K
0S
b0010011 c
b00000 k
b00 5!
b00 E!
b00000000000000101000001010010011 }!
b00000000000000000000000000000101 '"
b00000000000000000000100000001000 /"
b00000000000000101000000000000100 7"
b00000000000000101000000000000000 ?"
b00000000000000000000000000000000 G"
b01000000001000000000000000000000 O"
b01000000001000000000000000000000 W"
b00000000000000000000000000001000 _"
b00101 g"
b00000 o"
1a#
0y#
b0000000 ;$
b000000000101 C$
b000000 c$
b0100000000100 s$
b00101000 %%
b0000000000 5%
b000101000000000000000 =%
b00000000000000101000 M%
b000000000000 ]%
b00000000000000000000000000000100 e%
b0000000001 m%
b00000000000000000000000000001000 u%
1I+
#4
0I+
#5
b00000000000000000000000000000000 +
b00111111101001100110000000000000 3
b00111111101001100110000000000000 C
b110 K
b110 [
b0110111 c
b00111 k
b11 5!
b01 E!
b00111111101001100110001100110111 }!
b00000000000000000000001111100110 '"
b00000000000000000000001111101110 /"
b00000000000001100110010000000010 7"
b00111111101001100110000000000000 ?"
b00000000000000000000001111111010 G"
b00000000000000000000000000000000 O"
b00000000000000000000001111111010 W"
b00000000000000000000000000001100 _"
b01100 g"
b11010 o"
b00110 w"
b00111111101001100110000000000000 !#
0a#
1y#
b0011111 ;$
b001111100110 C$
0[$
b011111 c$
b0011 k$
b0001111100110 s$
b01100110 %%
b0111111101 5%
b001100110001111111010 =%
b00111111101001100110 M%
b001111111010 ]%
b00000000000000000000000000001000 e%
b0000000010 m%
b00000000000000000000000000001100 u%
1I+
b00111111101001100110000000000000 Y+
#6
0I+
#7
b00111111101001100110000000000000 +
b00000000000000000000011001100110 3
b00111111101001100110011001100110 C
b001 K
1S
b000 [
b0010011 c
b01100 k
b00 5!
b00 E!
b00111111101001100110000000000000 e!
b00000000000000000000000010011001 u!
b01100110011000110000001100010011 }!
b00000000000000000000011001100110 '"
b00000000000000000000011001110010 /"
b00000000000000110000011001110010 7"
b01100110011000110000000000000000 ?"
b00000000000000000000011001100110 G"
b00111111101001100110000000000000 O"
b00111111101001100110011001100110 W"
b00000000000000000000000000010000 _"
b00110 g"
b00110 o"
b00111111101001100110011001100110 !#
1a#
0y#
b0010011001 3$
b0110011 ;$
b011001100110 C$
b110011 c$
b0011001100110 s$
b00110000 %%
b1100110011 5%
b000110000011001100110 =%
b01100110011000110000 M%
b011001100110 ]%
b00000000000000000000000000001100 e%
b0000000011 m%
b00000000000000000000000000010000 u%
b00111111101001100110000000000000 O&
1I+
b00111111101001100110011001100110 Y+
#8
0I+
#9
b01000 #
b01000000001000000000000000000000 +
b00000000000000000000000000000000 3
b01000000001000000000000000000000 C
b000 K
b1010011 c
b11110 k
0-!
0=!
1U!
b00000000000000000000000000000000 e!
b00000000000000000000000000000000 u!
b11110000000000101000000111010011 }!
b11111111111111111111111100000011 '"
b11111111111111111111111100010010 /"
b11111111111100101000011100010000 7"
b11110000000000101000000000000000 ?"
b11111111111111111111111100000000 G"
b01000000001000000000000000000000 O"
b01000000000111111111111100000000 W"
b00000000000000000000000000010100 _"
b00101 g"
b00000 o"
b00011 w"
b01000000001000000000000000000000 !#
b01000000001000000000000000000000 9#
0a#
1#$
b0000000000 3$
b1111000 ;$
b111100000011 C$
b11111111111111111111 K$
1S$
1[$
b111000 c$
b0001 k$
b1111100000010 s$
b1111111111111111111 {$
b00101000 %%
b1110000000 5%
b100101000011100000000 =%
b111111111111 E%
b11110000000000101000 M%
b11111111111111111111 U%
b111100000000 ]%
b00000000000000000000000000010000 e%
b0000000100 m%
b00000000000000000000000000010100 u%
b00111111101001100110011001100110 O&
1I+
b01000000001000000000000000000000 Y+
#10
0I+
#11
b00111111101001100110011001100110 +
b00111111101001100110011001100110 C
b00000000000000000000000010011001 u!
b11110000000000110000001001010011 }!
b11111111111111111111111100000100 '"
b11111111111111111111011100011000 /"
b11111111111100110000011100010100 7"
b11110000000000110000000000000000 ?"
b00111111101001100110011001100110 O"
b00111111101001100110010101100110 W"
b00000000000000000000000000011000 _"
b00110 g"
b00100 w"
b00111111101001100110011001100110 !#
b00111111101001100110011001100110 9#
b0010011001 3$
b111100000100 C$
0[$
b0010 k$
b1011100000100 s$
b00110000 %%
b100110000011100000000 =%
b11110000000000110000 M%
b00000000000000000000000000010100 e%
b0000000101 m%
b00000000000000000000000000011000 u%
b01000000001000000000000000000000 {(
1I+
b00111111101001100110011001100110 Y+
#12
0I+
#13
b00000 #
b01000000001000000000000000000000 +
b00111111101001100110011001100110 3
b01111111110001100110011001100110 C
0S
b00000 k
1]!
b00000000010000011000001011010011 }!
b00000000000000000000000000000101 '"
b00000000000000000000100000011100 /"
b00000000000000011000000000011100 7"
b00000000010000011000000000000000 ?"
b00000000000000000000000000000100 G"
b00000000000000000000000000000000 O"
b00000000000000000000000000000100 W"
b00000000000000000000000000011100 _"
b00011 g"
b00100 o"
b00101 w"
b01111111110001100110011001100110 !#
b01000000001000000000000000000000 )#
b00111111101001100110011001100110 1#
b01111111110001100110011001100110 9#
0#$
1+$
b0000000 ;$
b000000000101 C$
b00000000000000000000 K$
0S$
1[$
b000000 c$
b0100000000100 s$
b0000000000000000000 {$
b00011000 %%
b0000000010 5%
b000011000000000000100 =%
b000000000000 E%
b00000000010000011000 M%
b00000000000000000000 U%
b000000000100 ]%
b00000000000000000000000000011000 e%
b0000000110 m%
b00000000000000000000000000011100 u%
b00111111101001100110011001100110 %)
1I+
b01111111110001100110011001100110 Y+
#14
0I+
#15
b00000000000000000000000000000000 +
b00000000000000000000000000000000 3
b00000000000000000000000000000000 C
b0000000 c
0U!
0]!
b00000000000000000000000000000000 u!
b00000000000000000000000000000000 }!
b00000000000000000000000000000000 '"
b00000000000000000000000000011100 /"
b00000000000000000000000000011100 7"
b00000000000000000000000000000000 ?"
b00000000000000000000000000000000 G"
b00000000000000000000000000000000 W"
b00000000000000000000000000100000 _"
b00000 g"
b00000 o"
b00000 w"
b00000000000000000000000000000000 !#
b00000000000000000000000000000000 )#
b00000000000000000000000000000000 1#
b00000000000000000000000000000000 9#
0+$
b0000000000 3$
b000000000000 C$
0[$
b0000 k$
b0000000000000 s$
b00000000 %%
b0000000000 5%
b000000000000000000000 =%
b00000000000000000000 M%
b000000000000 ]%
b00000000000000000000000000011100 e%
b0000000111 m%
b00000000000000000000000000100000 u%
b01111111110001100110011001100110 -)
1I+
b00000000000000000000000000000000 Y+
#16
0I+
#17
b00000000000000000000000000100000 /"
b00000000000000000000000000100000 7"
b00000000000000000000000000100100 _"
b00000000000000000000000000100000 e%
b0000001000 m%
b00000000000000000000000000100100 u%
1I+
#18
0I+
#19
b00000000000000000000000000100100 /"
b00000000000000000000000000100100 7"
b00000000000000000000000000101000 _"
b00000000000000000000000000100100 e%
b0000001001 m%
b00000000000000000000000000101000 u%
1I+
#20
0I+
#21
b00000000000000000000000000101000 /"
b00000000000000000000000000101000 7"
b00000000000000000000000000101100 _"
b00000000000000000000000000101000 e%
b0000001010 m%
b00000000000000000000000000101100 u%
1I+
#22
0I+
#23
b00000000000000000000000000101100 /"
b00000000000000000000000000101100 7"
b00000000000000000000000000110000 _"
b00000000000000000000000000101100 e%
b0000001011 m%
b00000000000000000000000000110000 u%
1I+
#24
0I+
#25
b00000000000000000000000000110000 /"
b00000000000000000000000000110000 7"
b00000000000000000000000000110100 _"
b00000000000000000000000000110000 e%
b0000001100 m%
b00000000000000000000000000110100 u%
1I+
#26
0I+
#27
b00000000000000000000000000110100 /"
b00000000000000000000000000110100 7"
b00000000000000000000000000111000 _"
b00000000000000000000000000110100 e%
b0000001101 m%
b00000000000000000000000000111000 u%
1I+
#28
0I+
#29
b00000000000000000000000000111000 /"
b00000000000000000000000000111000 7"
b00000000000000000000000000111100 _"
b00000000000000000000000000111000 e%
b0000001110 m%
b00000000000000000000000000111100 u%
1I+
#30
0I+
#31
b00000000000000000000000000111100 /"
b00000000000000000000000000111100 7"
b00000000000000000000000001000000 _"
b00000000000000000000000000111100 e%
b0000001111 m%
b00000000000000000000000001000000 u%
1I+
#32
0I+
#33
b00000000000000000000000001000000 /"
b00000000000000000000000001000000 7"
b00000000000000000000000001000100 _"
b00000000000000000000000001000000 e%
b0000010000 m%
b00000000000000000000000001000100 u%
1I+
#34
0I+
#35
b00000000000000000000000001000100 /"
b00000000000000000000000001000100 7"
b00000000000000000000000001001000 _"
b00000000000000000000000001000100 e%
b0000010001 m%
b00000000000000000000000001001000 u%
1I+
#36
0I+
#37
b00000000000000000000000001001000 /"
b00000000000000000000000001001000 7"
b00000000000000000000000001001100 _"
b00000000000000000000000001001000 e%
b0000010010 m%
b00000000000000000000000001001100 u%
1I+
#38
0I+
#39
b00000000000000000000000001001100 /"
b00000000000000000000000001001100 7"
b00000000000000000000000001010000 _"
b00000000000000000000000001001100 e%
b0000010011 m%
b00000000000000000000000001010000 u%
1I+
#40
0I+
#41
b00000000000000000000000001010000 /"
b00000000000000000000000001010000 7"
b00000000000000000000000001010100 _"
b00000000000000000000000001010000 e%
b0000010100 m%
b00000000000000000000000001010100 u%
1I+
#42
0I+
#43
b00000000000000000000000001010100 /"
b00000000000000000000000001010100 7"
b00000000000000000000000001011000 _"
b00000000000000000000000001010100 e%
b0000010101 m%
b00000000000000000000000001011000 u%
1I+
#44
0I+
#45
b00000000000000000000000001011000 /"
b00000000000000000000000001011000 7"
b00000000000000000000000001011100 _"
b00000000000000000000000001011000 e%
b0000010110 m%
b00000000000000000000000001011100 u%
1I+
#46
0I+
#47
b00000000000000000000000001011100 /"
b00000000000000000000000001011100 7"
b00000000000000000000000001100000 _"
b00000000000000000000000001011100 e%
b0000010111 m%
b00000000000000000000000001100000 u%
1I+
#48
0I+
#49
b00000000000000000000000001100000 /"
b00000000000000000000000001100000 7"
b00000000000000000000000001100100 _"
b00000000000000000000000001100000 e%
b0000011000 m%
b00000000000000000000000001100100 u%
1I+
#50
0I+
#51
b00000000000000000000000001100100 /"
b00000000000000000000000001100100 7"
b00000000000000000000000001101000 _"
b00000000000000000000000001100100 e%
b0000011001 m%
b00000000000000000000000001101000 u%
1I+
#52
0I+
#53
b00000000000000000000000001101000 /"
b00000000000000000000000001101000 7"
b00000000000000000000000001101100 _"
b00000000000000000000000001101000 e%
b0000011010 m%
b00000000000000000000000001101100 u%
1I+
#54
0I+
#55
b00000000000000000000000001101100 /"
b00000000000000000000000001101100 7"
b00000000000000000000000001110000 _"
b00000000000000000000000001101100 e%
b0000011011 m%
b00000000000000000000000001110000 u%
1I+
#56
0I+
#57
b00000000000000000000000001110000 /"
b00000000000000000000000001110000 7"
b00000000000000000000000001110100 _"
b00000000000000000000000001110000 e%
b0000011100 m%
b00000000000000000000000001110100 u%
1I+
#58
0I+
#59
b00000000000000000000000001110100 /"
b00000000000000000000000001110100 7"
b00000000000000000000000001111000 _"
b00000000000000000000000001110100 e%
b0000011101 m%
b00000000000000000000000001111000 u%
1I+
#60
0I+
#61
b00000000000000000000000001111000 /"
b00000000000000000000000001111000 7"
b00000000000000000000000001111100 _"
b00000000000000000000000001111000 e%
b0000011110 m%
b00000000000000000000000001111100 u%
1I+
#62
0I+
#63
b00000000000000000000000001111100 /"
b00000000000000000000000001111100 7"
b00000000000000000000000010000000 _"
b00000000000000000000000001111100 e%
b0000011111 m%
b00000000000000000000000010000000 u%
1I+
#64
0I+
#65
b00000000000000000000000010000000 /"
b00000000000000000000000010000000 7"
b00000000000000000000000010000100 _"
b00000000000000000000000010000000 e%
b0000100000 m%
b00000000000000000000000010000100 u%
1I+
#66
0I+
